{
  "type": "service_account",
  "project_id": "automlproj-269213",
  "private_key_id": "1cf027064ff0a153277191a723dc270b7d2f7c51",
  "private_key": "-----BEGIN PRIVATE KEY-----\nMIIEvgIBADANBgkqhkiG9w0BAQEFAASCBKgwggSkAgEAAoIBAQDIRqrtubGDzYUw\n1MuNyS544XYXZb2Ondi46GUJGpCsZB5/oYB7X0Ux/qs0Kp35CN6g5oe7019jWvKv\nhZ/Ls42sk1NqpkeUrIk4S9deX4+2CVe/YtFGyrDoOGm/Kn/3Md02I87CUflkOcx+\n+AsW+jRWp+twxSWmb4A7tW4kA/8vpcHcPv4sgA8NV1oHSG3nY4A2cKCazhupGA+r\nNknpsoiU+Pb+XBUEXNLDc89SlI73stGTjoZjxZfQIHJEJ97JTXJUrgS2XJdzt119\n0hg2J2WCiKCZjubHDFR0tL9Vgq8KGn/uOQhq8gCfhr3LTX7WIS0SXN6WFkzIr3qL\ns+eLil+dAgMBAAECggEACc2rwEc+sTz2MBW6gQ5AABrJNQv942VGnoaBq5hpTIb6\nFzVInMFlGbVlnAAaC36rpyShsEgAe1SQXJcl40q+vJvZkXbiOhzX+rF7sVrsJfT/\nHpcvt09kqXlZc8oYyXjfYy8Nh+WLV6ScpfpuUIme1j8R/0snNKZwmHuhEJJBg4t7\nRoModytm30b3nfcO/XsuFJrywWiXJwTpb5ylBKES646f+iCs7auUROcnYP1hUm22\nAgRpDxW8yTP7NXWgs4XP5nygtRZeNP0kn/Ojmf+nyRios0xrew/bCO4PErbV62G/\nbm5csD1FKYPR3YGFj+zbv8NwtmS3uG9WbEmQ1xUv4QKBgQD/HMh1sEV32gBN8AYO\nj7RWbTX/bgy6cS233i6dEC9um73c8I8wvWSJX3DvVqXufmwcOY8AieosMu2frIxo\nAGgWxcunXomDa8qldnkdMQmmOX0B0NEv5bUBPPlvSM4dMaTbgfV005ZGAoj7UiA+\nBRX00w3GZT4PXCU40DDIN0UvvwKBgQDI+Qtc41d5nsOqBX1ZPA9HK3YNWxeFAAzH\nzIt0kYZUVlCGhcSq8+/VKaSwF6RjM8RwbPUQGxIDo4V2jAybuGqCy89G3K+0AKKJ\nBMXdNBki0P1ulol2cVqrQThwi+olI9FZE7OvyumpeSmKMCDg8MVXKQeOJjJnyS8O\nXvHLpYFHowKBgQDrfVZNzPlTORku2HG+30hIv2co8h0tvWvGXoII2ffu0jTgze5f\nv3QemstVI1boYCrLoxYuGSDgy+ItksnI9xceblcfmFS3y7i0JDiIicuudUK/elKf\nNBtxmSdnYn1g1YKoXb6GqQn+djicRaMdnPQ3mtsMWEiBRT3Ww9dD+kETYQKBgQCp\nADyc7RSXUnoJlLo2+vmCCLsqOgrKLiORNKGk8ec7LqZiqUSb2aw53d3+srLrNRIg\n1I8z7v+0DaNi8Bx+KpNu0ALK/TPHs6z6eggFnxTwITys7WxFLMdpMdxLUG0itD8M\noDO/RWw+toPHD/fmELJyPC99SwOiIR0wAYlljhTr7wKBgCDFNmb6P+5emu+uBNPr\ndoetr4ziSlOd3LxYq7dBLYb9ZBUVIvALzYU2J5YFeJ/oQyRgey0XlAGk6+iqkf6N\nfBbeZqurZdclBsoJsIaIZRmQu7eJ0+Ee+i1/rIdjaFkgsiFkLekRqG6L0hUMr4LM\nTXIzh++/ba9eIyGGD9A0djck\n-----END PRIVATE KEY-----\n",
  "client_email": "my-service-account@automlproj-269213.iam.gserviceaccount.com",
  "client_id": "109468397208349979557",
  "auth_uri": "https://accounts.google.com/o/oauth2/auth",
  "token_uri": "https://oauth2.googleapis.com/token",
  "auth_provider_x509_cert_url": "https://www.googleapis.com/oauth2/v1/certs",
  "client_x509_cert_url": "https://www.googleapis.com/robot/v1/metadata/x509/my-service-account%40automlproj-269213.iam.gserviceaccount.com"
}
